{
  "openapi": "3.0.1",
  "info": {
    "title": "HS2 SLS API Explorer",
    "version": "0.1"
  },
  "servers": [
    {
      "url": "http://localhost:9090"
    }
  ],
  "tags": [
    {
      "name": "licence",
      "description": "Licence description"
    },
    {
      "name": "Data",
      "description": "Data description"
    }
  ],
  "paths": {
    "/api/data/{id}": {
      "get": {
        "parameters": [
          {
            "name": "id",
            "in": "path",
            "schema": {
              "type": "string"
            },
            "required": true,
            "description": "ID of the node to get"
          }
        ],
        "tags": [
          "Data"
        ],
        "description": "Find any node by ID",
        "responses": {
          "200": {
            "description": "Auto generated using Swagger Inspector",
            "content": {
              "application/json; charset=utf-8": {
                "schema": {
                  "type": "string"
                },
                "examples": {}
              }
            }
          }
        }
      }
    },
    "/api/licence": {
      "get": {
        "tags": [
          "licence"
        ],
        "description": "Get all licence",
        "parameters" : [ {
          "name" : "page",
          "in" : "query",
          "schema" : {
            "type" : "string"
          },
          "example" : "2"
        } ],
        "responses": {
          "200": {
            "description": "Paginated response containing array of all licence",
            "content": {
              "application/json; charset=utf-8": {
                "schema": {
                  "type": "string"
                },
                "examples": {}
              }
            }
          }
        }
      }
    },
    "/api/licence/{key}": {
      "get": {
        "parameters": [
          {
            "name": "key",
            "in": "path",
            "schema": {
              "type": "integer"
            },
            "required": true,
            "description": "Key of the user to get"
          }
        ],
        "tags": [
          "licence"
        ],
        "description": "Get a licence by key",
        "responses": {
          "200": {
            "description": "Auto generated using Swagger Inspector",
            "content": {
              "application/json; charset=utf-8": {
                "schema": {
                  "type": "string"
                },
                "examples": {}
              }
            }
          }
        }
      }
    }
  }
}